src/tb.vcd
$date
	Fri Nov  3 16:56:56 2023
$end
$version
	Icarus Verilog
$end
$timescale
	1ps
$end
$scope module tb $end
$var wire 8 ! uio_oe [7:0] $end
$var wire 8 " uio_out [7:0] $end
$var wire 8 # uo_out [7:0] $end
$var wire 7 $ segments [6:0] $end
$var reg 1 % clk $end
$var reg 1 & ena $end
$var reg 1 ' rst_n $end
$var reg 8 ( ui_in [7:0] $end
$var reg 8 ) uio_in [7:0] $end
$scope module tt_um_perceptron $end
$var wire 1 % clk $end
$var wire 1 & ena $end
$var wire 8 * mac_out [7:0] $end
$var wire 8 + partial_mac_out [7:0] $end
$var wire 1 ' rst_n $end
$var wire 8 , ui_in [7:0] $end
$var wire 8 - uio_in [7:0] $end
$var wire 8 . uio_oe [7:0] $end
$var wire 8 / uio_out [7:0] $end
$var wire 8 0 uo_out [7:0] $end
$var wire 8 1 y_current [7:0] $end
$var parameter 32 2 inp_dim $end
$var parameter 32 3 inp_n_samples $end
$var parameter 32 4 out_dim $end
$var reg 8 5 activation_out [7:0] $end
$var reg 8 6 delta [7:0] $end
$var reg 8 7 z1 [7:0] $end
$var integer 32 8 k [31:0] $end
$var integer 32 9 l [31:0] $end
$var integer 32 : mac_out_flag [31:0] $end
$scope begin genblk1[0] $end
$var parameter 2 ; i $end
$scope begin genblk1[0] $end
$var parameter 2 < j $end
$scope module my_mac_inst $end
$var wire 1 % clk $end
$var wire 8 = previous_out [7:0] $end
$var wire 1 ' rst_n $end
$var wire 4 > w [3:0] $end
$var wire 4 ? x [3:0] $end
$var reg 8 @ accumulation_out [7:0] $end
$var reg 8 A multiplier_output [7:0] $end
$var reg 8 B out [7:0] $end
$upscope $end
$upscope $end
$scope begin genblk1[1] $end
$var parameter 2 C j $end
$scope module my_mac_inst $end
$var wire 1 % clk $end
$var wire 8 D previous_out [7:0] $end
$var wire 1 ' rst_n $end
$var wire 4 E w [3:0] $end
$var wire 4 F x [3:0] $end
$var reg 8 G accumulation_out [7:0] $end
$var reg 8 H multiplier_output [7:0] $end
$var reg 8 I out [7:0] $end
$upscope $end
$upscope $end
$scope begin genblk1[2] $end
$var parameter 3 J j $end
$scope module my_mac_inst $end
$var wire 1 % clk $end
$var wire 8 K previous_out [7:0] $end
$var wire 1 ' rst_n $end
$var wire 4 L w [3:0] $end
$var wire 4 M x [3:0] $end
$var reg 8 N accumulation_out [7:0] $end
$var reg 8 O multiplier_output [7:0] $end
$var reg 8 P out [7:0] $end
$upscope $end
$upscope $end
$upscope $end
$scope begin genblk1[1] $end
$var parameter 2 Q i $end
$scope begin genblk1[0] $end
$var parameter 2 R j $end
$scope module my_mac_inst $end
$var wire 1 % clk $end
$var wire 8 S previous_out [7:0] $end
$var wire 1 ' rst_n $end
$var wire 4 T w [3:0] $end
$var wire 4 U x [3:0] $end
$var reg 8 V accumulation_out [7:0] $end
$var reg 8 W multiplier_output [7:0] $end
$var reg 8 X out [7:0] $end
$upscope $end
$upscope $end
$scope begin genblk1[1] $end
$var parameter 2 Y j $end
$scope module my_mac_inst $end
$var wire 1 % clk $end
$var wire 8 Z previous_out [7:0] $end
$var wire 1 ' rst_n $end
$var wire 4 [ w [3:0] $end
$var wire 4 \ x [3:0] $end
$var reg 8 ] accumulation_out [7:0] $end
$var reg 8 ^ multiplier_output [7:0] $end
$var reg 8 _ out [7:0] $end
$upscope $end
$upscope $end
$scope begin genblk1[2] $end
$var parameter 3 ` j $end
$scope module my_mac_inst $end
$var wire 1 % clk $end
$var wire 8 a previous_out [7:0] $end
$var wire 1 ' rst_n $end
$var wire 4 b w [3:0] $end
$var wire 4 c x [3:0] $end
$var reg 8 d accumulation_out [7:0] $end
$var reg 8 e multiplier_output [7:0] $end
$var reg 8 f out [7:0] $end
$upscope $end
$upscope $end
$upscope $end
$upscope $end
$upscope $end
$enddefinitions $end
$comment Show the parameter values. $end
$dumpall
b10 `
b1 Y
b0 R
b1 Q
b10 J
b1 C
b0 <
b0 ;
b1 4
b11 3
b10 2
$end
#0
$dumpvars
bx f
b101101 e
bx d
b101 c
b1001 b
bx a
bx _
b101101 ^
bx ]
b101 \
b1001 [
bx Z
bx X
b11011 W
bx V
b11 U
b1001 T
bx S
bx P
b10000 O
bx N
b100 M
b100 L
bx K
bx I
b10000 H
bx G
b100 F
b100 E
bx D
bx B
b1000 A
bx @
b10 ?
b100 >
bx =
b0 :
bx 9
bx 8
b0 7
b0 6
b0 5
b0x 1
b0 0
bz /
bz .
bx -
bx ,
bx +
bx *
bx )
bx (
1'
x&
1%
b0 $
b0 #
bz "
bz !
$end
#500000000
0%
#1000000000
1%
#1500000000
0%
#2000000000
1%
#2500000000
0%
#3000000000
1%
#3500000000
0%
#4000000000
1%
#4500000000
0%
#5000000000
1%
#5500000000
0%
#6000000000
1%
#6500000000
0%
#7000000000
1%
#7500000000
0%
#8000000000
1%
#8500000000
0%
#9000000000
1%
#9500000000
0%
#10000000000
1%
#10500000000
0%
#11000000000
1%
#11500000000
0%
#12000000000
1%
#12500000000
0%
#13000000000
1%
#13500000000
0%
#14000000000
1%
#14500000000
0%
#15000000000
1%
#15500000000
0%
#16000000000
1%
#16500000000
0%
#17000000000
1%
#17500000000
0%
#18000000000
1%
#18500000000
0%
#19000000000
1%
#19500000000
0%
#20000000000
1%
#20500000000
0%
#21000000000
1%
#21500000000
0%
#22000000000
1%
#22500000000
0%
#23000000000
1%
#23500000000
0%
#24000000000
1%
#24500000000
0%
#25000000000
1%
#25500000000
0%
#26000000000
1%
#26500000000
0%
#27000000000
1%
#27500000000
0%
#28000000000
1%
#28500000000
0%
#29000000000
1%
#29500000000
0%
#30000000000
1%
#30500000000
0%
#31000000000
1%
#31500000000
0%
#32000000000
1%
#32500000000
0%
#33000000000
1%
#33500000000
0%
#34000000000
1%
#34500000000
0%
#35000000000
1%
#35500000000
0%
#36000000000
1%
#36500000000
0%
#37000000000
1%
#37500000000
0%
#38000000000
1%
#38500000000
0%
#39000000000
1%
#39500000000
0%
#40000000000
1%
#40500000000
0%
#41000000000
1%
#41500000000
0%
#42000000000
1%
#42500000000
0%
#43000000000
1%
#43500000000
0%
#44000000000
1%
#44500000000
0%
#45000000000
1%
#45500000000
0%
#46000000000
1%
#46500000000
0%
#47000000000
1%
#47500000000
0%
#48000000000
1%
#48500000000
0%
#49000000000
1%
#49500000000
0%
#50000000000
1%
#50500000000
0%
#51000000000
1%
#51500000000
0%
#52000000000
1%
#52500000000
0%
#53000000000
1%
#53500000000
0%
#54000000000
1%
#54500000000
0%
#55000000000
1%
#55500000000
0%
#56000000000
1%
#56500000000
0%
#57000000000
1%
#57500000000
0%
#58000000000
1%
#58500000000
0%
#59000000000
1%
#59500000000
0%
#60000000000
1%
#60500000000
0%
#61000000000
1%
#61500000000
0%
#62000000000
1%
#62500000000
0%
#63000000000
1%
#63500000000
0%
#64000000000
1%
#64500000000
0%
#65000000000
1%
#65500000000
0%
#66000000000
1%
#66500000000
0%
#67000000000
1%
#67500000000
0%
#68000000000
1%
#68500000000
0%
#69000000000
1%
#69500000000
0%
#70000000000
1%
#70500000000
0%
#71000000000
1%
#71500000000
0%
#72000000000
1%
#72500000000
0%
#73000000000
1%
#73500000000
0%
#74000000000
1%
#74500000000
0%
#75000000000
1%
#75500000000
0%
#76000000000
1%
#76500000000
0%
#77000000000
1%
#77500000000
0%
#78000000000
1%
#78500000000
0%
#79000000000
1%
#79500000000
0%
#80000000000
1%
#80500000000
0%
#81000000000
1%
#81500000000
0%
#82000000000
1%
#82500000000
0%
#83000000000
1%
#83500000000
0%
#84000000000
1%
#84500000000
0%
#85000000000
1%
#85500000000
0%
#86000000000
1%
#86500000000
0%
#87000000000
1%
#87500000000
0%
#88000000000
1%
#88500000000
0%
#89000000000
1%
#89500000000
0%
#90000000000
1%
#90500000000
0%
#91000000000
1%
#91500000000
0%
#92000000000
1%
#92500000000
0%
#93000000000
1%
#93500000000
0%
#94000000000
1%
#94500000000
0%
#95000000000
1%
#95500000000
0%
#96000000000
1%
#96500000000
0%
#97000000000
1%
#97500000000
0%
#98000000000
1%
#98500000000
0%
#99000000000
0'
1%
#99500000000
0%
#100000000000
b0 +
b0 =
b0 D
b0 K
b0 S
b0 Z
b0 a
b0 *
b0 B
b0 I
b0 P
b0 X
b0 _
b0 f
1%
#100500000000
0%
#101000000000
1%
#101500000000
0%
#102000000000
1%
#102500000000
0%
#103000000000
1%
#103500000000
0%
#104000000000
1%
#104500000000
0%
#105000000000
1%
#105500000000
0%
#106000000000
1%
#106500000000
0%
#107000000000
1%
#107500000000
0%
#108000000000
1%
#108500000000
0%
#109000000000
1%
#109500000000
0%
#110000000000
1%
#110500000000
0%
#111000000000
1%
#111500000000
0%
#112000000000
1%
#112500000000
0%
#113000000000
1%
#113500000000
0%
#114000000000
1%
#114500000000
0%
#115000000000
1%
#115500000000
0%
#116000000000
1%
#116500000000
0%
#117000000000
1%
#117500000000
0%
#118000000000
1%
#118500000000
0%
#119000000000
1%
#119500000000
0%
#120000000000
1%
#120500000000
0%
#121000000000
1%
#121500000000
0%
#122000000000
1%
#122500000000
0%
#123000000000
1%
#123500000000
0%
#124000000000
1%
#124500000000
0%
#125000000000
1%
#125500000000
0%
#126000000000
1%
#126500000000
0%
#127000000000
1%
#127500000000
0%
#128000000000
1%
#128500000000
0%
#129000000000
1%
#129500000000
0%
#130000000000
1%
#130500000000
0%
#131000000000
1%
#131500000000
0%
#132000000000
1%
#132500000000
0%
#133000000000
1%
#133500000000
0%
#134000000000
1%
#134500000000
0%
#135000000000
1%
#135500000000
0%
#136000000000
1%
#136500000000
0%
#137000000000
1%
#137500000000
0%
#138000000000
1%
#138500000000
0%
#139000000000
1%
#139500000000
0%
#140000000000
1%
#140500000000
0%
#141000000000
1%
#141500000000
0%
#142000000000
1%
#142500000000
0%
#143000000000
1%
#143500000000
0%
#144000000000
1%
#144500000000
0%
#145000000000
1%
#145500000000
0%
#146000000000
1%
#146500000000
0%
#147000000000
1%
#147500000000
0%
#148000000000
1%
#148500000000
0%
#149000000000
1%
#149500000000
0%
#150000000000
1%
#150500000000
0%
#151000000000
1%
#151500000000
0%
#152000000000
1%
#152500000000
0%
#153000000000
1%
#153500000000
0%
#154000000000
1%
#154500000000
0%
#155000000000
1%
#155500000000
0%
#156000000000
1%
#156500000000
0%
#157000000000
1%
#157500000000
0%
#158000000000
1%
#158500000000
0%
#159000000000
1%
#159500000000
0%
#160000000000
1%
#160500000000
0%
#161000000000
1%
#161500000000
0%
#162000000000
1%
#162500000000
0%
#163000000000
1%
#163500000000
0%
#164000000000
1%
#164500000000
0%
#165000000000
1%
#165500000000
0%
#166000000000
1%
#166500000000
0%
#167000000000
1%
#167500000000
0%
#168000000000
1%
#168500000000
0%
#169000000000
1%
#169500000000
0%
#170000000000
1%
#170500000000
0%
#171000000000
1%
#171500000000
0%
#172000000000
1%
#172500000000
0%
#173000000000
1%
#173500000000
0%
#174000000000
1%
#174500000000
0%
#175000000000
1%
#175500000000
0%
#176000000000
1%
#176500000000
0%
#177000000000
1%
#177500000000
0%
#178000000000
1%
#178500000000
0%
#179000000000
1%
#179500000000
0%
#180000000000
1%
#180500000000
0%
#181000000000
1%
#181500000000
0%
#182000000000
1%
#182500000000
0%
#183000000000
1%
#183500000000
0%
#184000000000
1%
#184500000000
0%
#185000000000
1%
#185500000000
0%
#186000000000
1%
#186500000000
0%
#187000000000
1%
#187500000000
0%
#188000000000
1%
#188500000000
0%
#189000000000
1%
#189500000000
0%
#190000000000
1%
#190500000000
0%
#191000000000
1%
#191500000000
0%
#192000000000
1%
#192500000000
0%
#193000000000
1%
#193500000000
0%
#194000000000
1%
#194500000000
0%
#195000000000
1%
#195500000000
0%
#196000000000
1%
#196500000000
0%
#197000000000
1%
#197500000000
0%
#198000000000
1%
#198500000000
0%
#199000000000
1'
1%
#199500000000
0%
#200000000000
bx B
b1000 @
bx I
b10000 G
bx P
b10000 N
bx X
b11011 V
bx _
b101101 ]
bx +
bx =
bx D
bx K
bx S
bx Z
bx a
bx *
bx f
b101101 d
1%
#200500000000
0%
#201000000000
b0xxxxxx +
b0xxxxxx =
b0xxxxxx D
b0xxxxxx K
b0xxxxxx S
b0xxxxxx Z
b0xxxxxx a
b0xxxxxx *
b101101 f
bx d
b101101 _
bx ]
b11011 X
bx V
b10000 P
bx N
b10000 I
bx G
b1000 B
bx @
1%
#201500000000
0%
#202000000000
bx B
bx I
bx P
bx X
bx _
bx +
bx =
bx D
bx K
bx S
bx Z
bx a
bx *
bx f
1%
#202500000000
0%
#203000000000
1%
#203500000000
0%
#204000000000
1%
#204500000000
0%
#205000000000
1%
#205500000000
0%
#206000000000
1%
#206500000000
0%
#207000000000
1%
#207500000000
0%
#208000000000
1%
#208500000000
0%
#209000000000
1%
#209500000000
0%
#210000000000
1%
#210500000000
0%
#211000000000
1%
#211500000000
0%
#212000000000
1%
#212500000000
0%
#213000000000
1%
#213500000000
0%
#214000000000
1%
#214500000000
0%
#215000000000
1%
#215500000000
0%
#216000000000
1%
#216500000000
0%
#217000000000
1%
#217500000000
0%
#218000000000
1%
#218500000000
0%
#219000000000
1%
#219500000000
0%
#220000000000
1%
#220500000000
0%
#221000000000
1%
#221500000000
0%
#222000000000
1%
#222500000000
0%
#223000000000
1%
#223500000000
0%
#224000000000
1%
#224500000000
0%
#225000000000
1%
#225500000000
0%
#226000000000
1%
#226500000000
0%
#227000000000
1%
#227500000000
0%
#228000000000
1%
#228500000000
0%
#229000000000
1%
#229500000000
0%
#230000000000
1%
#230500000000
0%
#231000000000
1%
#231500000000
0%
#232000000000
1%
#232500000000
0%
#233000000000
1%
#233500000000
0%
#234000000000
1%
#234500000000
0%
#235000000000
1%
#235500000000
0%
#236000000000
1%
#236500000000
0%
#237000000000
1%
#237500000000
0%
#238000000000
1%
#238500000000
0%
#239000000000
1%
#239500000000
0%
#240000000000
1%
#240500000000
0%
#241000000000
1%
#241500000000
0%
#242000000000
1%
#242500000000
0%
#243000000000
1%
#243500000000
0%
#244000000000
1%
#244500000000
0%
#245000000000
1%
#245500000000
0%
#246000000000
1%
#246500000000
0%
#247000000000
1%
#247500000000
0%
#248000000000
1%
#248500000000
0%
#249000000000
1%
#249500000000
0%
#250000000000
1%
#250500000000
0%
#251000000000
1%
#251500000000
0%
#252000000000
1%
#252500000000
0%
#253000000000
1%
#253500000000
0%
#254000000000
1%
#254500000000
0%
#255000000000
1%
#255500000000
0%
#256000000000
1%
#256500000000
0%
#257000000000
1%
#257500000000
0%
#258000000000
1%
#258500000000
0%
#259000000000
1%
#259500000000
0%
#260000000000
1%
#260500000000
0%
#261000000000
1%
#261500000000
0%
#262000000000
1%
#262500000000
0%
#263000000000
1%
#263500000000
0%
#264000000000
1%
#264500000000
0%
#265000000000
1%
#265500000000
0%
#266000000000
1%
#266500000000
0%
#267000000000
1%
#267500000000
0%
#268000000000
1%
#268500000000
0%
#269000000000
1%
#269500000000
0%
#270000000000
1%
#270500000000
0%
#271000000000
1%
#271500000000
0%
#272000000000
1%
#272500000000
0%
#273000000000
1%
#273500000000
0%
#274000000000
1%
#274500000000
0%
#275000000000
1%
#275500000000
0%
#276000000000
1%
#276500000000
0%
#277000000000
1%
#277500000000
0%
#278000000000
1%
#278500000000
0%
#279000000000
1%
#279500000000
0%
#280000000000
1%
#280500000000
0%
#281000000000
1%
#281500000000
0%
#282000000000
1%
#282500000000
0%
#283000000000
1%
#283500000000
0%
#284000000000
1%
#284500000000
0%
#285000000000
1%
#285500000000
0%
#286000000000
1%
#286500000000
0%
#287000000000
1%
#287500000000
0%
#288000000000
1%
#288500000000
0%
#289000000000
1%
#289500000000
0%
#290000000000
1%
#290500000000
0%
#291000000000
1%
#291500000000
0%
#292000000000
1%
#292500000000
0%
#293000000000
1%
#293500000000
0%
#294000000000
1%
#294500000000
0%
#295000000000
1%
#295500000000
0%
#296000000000
1%
#296500000000
0%
#297000000000
1%
#297500000000
0%
#298000000000
1%
#298500000000
0%
#299000000000
0'
1%
#299500000000
0%
#300000000000
b0 +
b0 =
b0 D
b0 K
b0 S
b0 Z
b0 a
b0 *
b0 B
b0 I
b0 P
b0 X
b0 _
b0 f
1%
